<mxfile host="app.diagrams.net" modified="2021-08-12T12:50:54.004Z" agent="5.0 (Windows NT 10.0; Win64; x64) AppleWebKit/537.36 (KHTML, like Gecko) Chrome/92.0.4515.131 Safari/537.36" etag="ZSOshoKEAhmabXftrbni" version="14.9.6" type="gitlab">
  <diagram id="C5RBs43oDa-KdzZeNtuy" name="Page-1">
    <mxGraphModel dx="2557" dy="2134" grid="1" gridSize="10" guides="1" tooltips="1" connect="1" arrows="1" fold="1" page="1" pageScale="1" pageWidth="827" pageHeight="1169" math="0" shadow="0">
      <root>
        <mxCell id="WIyWlLk6GJQsqaUBKTNV-0" />
        <mxCell id="WIyWlLk6GJQsqaUBKTNV-1" parent="WIyWlLk6GJQsqaUBKTNV-0" />
        <mxCell id="J4ALd3isPmLyB3Tv-TsV-10" style="edgeStyle=orthogonalEdgeStyle;rounded=0;orthogonalLoop=1;jettySize=auto;html=1;" parent="WIyWlLk6GJQsqaUBKTNV-1" target="WIyWlLk6GJQsqaUBKTNV-10" edge="1">
          <mxGeometry relative="1" as="geometry">
            <mxPoint x="-150" y="315" as="sourcePoint" />
          </mxGeometry>
        </mxCell>
        <mxCell id="WIyWlLk6GJQsqaUBKTNV-7" value="Submit" style="rounded=1;whiteSpace=wrap;html=1;fontSize=12;glass=0;strokeWidth=1;shadow=0;" parent="WIyWlLk6GJQsqaUBKTNV-1" vertex="1">
          <mxGeometry x="-210" y="275" width="120" height="40" as="geometry" />
        </mxCell>
        <mxCell id="J4ALd3isPmLyB3Tv-TsV-7" style="edgeStyle=orthogonalEdgeStyle;rounded=0;orthogonalLoop=1;jettySize=auto;html=1;" parent="WIyWlLk6GJQsqaUBKTNV-1" source="WIyWlLk6GJQsqaUBKTNV-10" target="J4ALd3isPmLyB3Tv-TsV-5" edge="1">
          <mxGeometry relative="1" as="geometry" />
        </mxCell>
        <mxCell id="J4ALd3isPmLyB3Tv-TsV-11" style="edgeStyle=orthogonalEdgeStyle;rounded=0;orthogonalLoop=1;jettySize=auto;html=1;entryX=0;entryY=0.5;entryDx=0;entryDy=0;" parent="WIyWlLk6GJQsqaUBKTNV-1" source="WIyWlLk6GJQsqaUBKTNV-10" edge="1">
          <mxGeometry relative="1" as="geometry">
            <mxPoint x="-50" y="395" as="targetPoint" />
          </mxGeometry>
        </mxCell>
        <mxCell id="WIyWlLk6GJQsqaUBKTNV-10" value="username terpakai?" style="rhombus;whiteSpace=wrap;html=1;shadow=0;fontFamily=Helvetica;fontSize=12;align=center;strokeWidth=1;spacing=6;spacingTop=-4;" parent="WIyWlLk6GJQsqaUBKTNV-1" vertex="1">
          <mxGeometry x="-200" y="355" width="100" height="80" as="geometry" />
        </mxCell>
        <mxCell id="J4ALd3isPmLyB3Tv-TsV-2" style="edgeStyle=orthogonalEdgeStyle;rounded=0;orthogonalLoop=1;jettySize=auto;html=1;entryX=0.5;entryY=0;entryDx=0;entryDy=0;entryPerimeter=0;" parent="WIyWlLk6GJQsqaUBKTNV-1" source="J4ALd3isPmLyB3Tv-TsV-0" target="yagRSJobjz2Ij9I6aUuk-5" edge="1">
          <mxGeometry relative="1" as="geometry">
            <mxPoint x="-150" y="85" as="targetPoint" />
          </mxGeometry>
        </mxCell>
        <mxCell id="J4ALd3isPmLyB3Tv-TsV-0" value="Mulai" style="ellipse;whiteSpace=wrap;html=1;" parent="WIyWlLk6GJQsqaUBKTNV-1" vertex="1">
          <mxGeometry x="-187.5" y="5" width="75" height="40" as="geometry" />
        </mxCell>
        <mxCell id="J4ALd3isPmLyB3Tv-TsV-14" style="edgeStyle=orthogonalEdgeStyle;rounded=0;orthogonalLoop=1;jettySize=auto;html=1;entryX=0;entryY=0.5;entryDx=0;entryDy=0;" parent="WIyWlLk6GJQsqaUBKTNV-1" source="J4ALd3isPmLyB3Tv-TsV-5" edge="1">
          <mxGeometry relative="1" as="geometry">
            <mxPoint x="-50" y="515" as="targetPoint" />
          </mxGeometry>
        </mxCell>
        <mxCell id="yagRSJobjz2Ij9I6aUuk-11" style="edgeStyle=orthogonalEdgeStyle;rounded=0;orthogonalLoop=1;jettySize=auto;html=1;entryX=0.5;entryY=0;entryDx=0;entryDy=0;entryPerimeter=0;" parent="WIyWlLk6GJQsqaUBKTNV-1" source="J4ALd3isPmLyB3Tv-TsV-5" target="yagRSJobjz2Ij9I6aUuk-10" edge="1">
          <mxGeometry relative="1" as="geometry" />
        </mxCell>
        <mxCell id="J4ALd3isPmLyB3Tv-TsV-5" value="password lemah?" style="rhombus;whiteSpace=wrap;html=1;shadow=0;fontFamily=Helvetica;fontSize=12;align=center;strokeWidth=1;spacing=6;spacingTop=-4;" parent="WIyWlLk6GJQsqaUBKTNV-1" vertex="1">
          <mxGeometry x="-200" y="475" width="100" height="80" as="geometry" />
        </mxCell>
        <mxCell id="J4ALd3isPmLyB3Tv-TsV-15" value="Yes" style="text;html=1;align=center;verticalAlign=middle;resizable=0;points=[];autosize=1;strokeColor=none;" parent="WIyWlLk6GJQsqaUBKTNV-1" vertex="1">
          <mxGeometry x="-155" y="325" width="30" height="20" as="geometry" />
        </mxCell>
        <mxCell id="J4ALd3isPmLyB3Tv-TsV-20" value="Yes" style="text;html=1;align=center;verticalAlign=middle;resizable=0;points=[];autosize=1;strokeColor=none;" parent="WIyWlLk6GJQsqaUBKTNV-1" vertex="1">
          <mxGeometry x="-95" y="375" width="30" height="20" as="geometry" />
        </mxCell>
        <mxCell id="J4ALd3isPmLyB3Tv-TsV-22" value="Yes" style="text;html=1;align=center;verticalAlign=middle;resizable=0;points=[];autosize=1;strokeColor=none;" parent="WIyWlLk6GJQsqaUBKTNV-1" vertex="1">
          <mxGeometry x="-95" y="495" width="30" height="20" as="geometry" />
        </mxCell>
        <mxCell id="J4ALd3isPmLyB3Tv-TsV-23" value="No" style="text;html=1;align=center;verticalAlign=middle;resizable=0;points=[];autosize=1;strokeColor=none;" parent="WIyWlLk6GJQsqaUBKTNV-1" vertex="1">
          <mxGeometry x="-152.5" y="555" width="30" height="20" as="geometry" />
        </mxCell>
        <mxCell id="J4ALd3isPmLyB3Tv-TsV-24" value="Selesai" style="ellipse;whiteSpace=wrap;html=1;" parent="WIyWlLk6GJQsqaUBKTNV-1" vertex="1">
          <mxGeometry x="-187.5" y="675" width="75" height="40" as="geometry" />
        </mxCell>
        <mxCell id="J4ALd3isPmLyB3Tv-TsV-26" style="edgeStyle=orthogonalEdgeStyle;rounded=0;orthogonalLoop=1;jettySize=auto;html=1;entryX=0.5;entryY=0;entryDx=0;entryDy=0;exitX=0.5;exitY=1;exitDx=0;exitDy=0;" parent="WIyWlLk6GJQsqaUBKTNV-1" source="yagRSJobjz2Ij9I6aUuk-15" target="J4ALd3isPmLyB3Tv-TsV-30" edge="1">
          <mxGeometry relative="1" as="geometry">
            <mxPoint x="150" y="335" as="sourcePoint" />
          </mxGeometry>
        </mxCell>
        <mxCell id="J4ALd3isPmLyB3Tv-TsV-28" style="edgeStyle=orthogonalEdgeStyle;rounded=0;orthogonalLoop=1;jettySize=auto;html=1;" parent="WIyWlLk6GJQsqaUBKTNV-1" source="J4ALd3isPmLyB3Tv-TsV-30" edge="1">
          <mxGeometry relative="1" as="geometry">
            <mxPoint x="250" y="395" as="targetPoint" />
          </mxGeometry>
        </mxCell>
        <mxCell id="J4ALd3isPmLyB3Tv-TsV-29" style="edgeStyle=orthogonalEdgeStyle;rounded=0;orthogonalLoop=1;jettySize=auto;html=1;" parent="WIyWlLk6GJQsqaUBKTNV-1" source="J4ALd3isPmLyB3Tv-TsV-30" target="J4ALd3isPmLyB3Tv-TsV-34" edge="1">
          <mxGeometry relative="1" as="geometry" />
        </mxCell>
        <mxCell id="J4ALd3isPmLyB3Tv-TsV-30" value="lengkap?" style="rhombus;whiteSpace=wrap;html=1;shadow=0;fontFamily=Helvetica;fontSize=12;align=center;strokeWidth=1;spacing=6;spacingTop=-4;" parent="WIyWlLk6GJQsqaUBKTNV-1" vertex="1">
          <mxGeometry x="100" y="355" width="100" height="80" as="geometry" />
        </mxCell>
        <mxCell id="J4ALd3isPmLyB3Tv-TsV-32" style="edgeStyle=orthogonalEdgeStyle;rounded=0;orthogonalLoop=1;jettySize=auto;html=1;" parent="WIyWlLk6GJQsqaUBKTNV-1" source="J4ALd3isPmLyB3Tv-TsV-34" edge="1">
          <mxGeometry relative="1" as="geometry">
            <mxPoint x="150" y="615" as="targetPoint" />
          </mxGeometry>
        </mxCell>
        <mxCell id="J4ALd3isPmLyB3Tv-TsV-33" style="edgeStyle=orthogonalEdgeStyle;rounded=0;orthogonalLoop=1;jettySize=auto;html=1;entryX=0;entryY=0.5;entryDx=0;entryDy=0;" parent="WIyWlLk6GJQsqaUBKTNV-1" source="J4ALd3isPmLyB3Tv-TsV-34" edge="1">
          <mxGeometry relative="1" as="geometry">
            <mxPoint x="250" y="520" as="targetPoint" />
          </mxGeometry>
        </mxCell>
        <mxCell id="J4ALd3isPmLyB3Tv-TsV-34" value="password/uname&lt;br&gt;&amp;nbsp;salah" style="rhombus;whiteSpace=wrap;html=1;shadow=0;fontFamily=Helvetica;fontSize=12;align=center;strokeWidth=1;spacing=6;spacingTop=-4;" parent="WIyWlLk6GJQsqaUBKTNV-1" vertex="1">
          <mxGeometry x="80" y="480" width="140" height="80" as="geometry" />
        </mxCell>
        <mxCell id="J4ALd3isPmLyB3Tv-TsV-35" style="edgeStyle=orthogonalEdgeStyle;rounded=0;orthogonalLoop=1;jettySize=auto;html=1;entryX=0.5;entryY=0;entryDx=0;entryDy=0;" parent="WIyWlLk6GJQsqaUBKTNV-1" target="J4ALd3isPmLyB3Tv-TsV-52" edge="1">
          <mxGeometry relative="1" as="geometry">
            <mxPoint x="150" y="655" as="sourcePoint" />
          </mxGeometry>
        </mxCell>
        <mxCell id="J4ALd3isPmLyB3Tv-TsV-38" style="edgeStyle=orthogonalEdgeStyle;rounded=0;orthogonalLoop=1;jettySize=auto;html=1;entryX=0.5;entryY=0;entryDx=0;entryDy=0;" parent="WIyWlLk6GJQsqaUBKTNV-1" source="J4ALd3isPmLyB3Tv-TsV-39" edge="1">
          <mxGeometry relative="1" as="geometry">
            <mxPoint x="150" y="85" as="targetPoint" />
          </mxGeometry>
        </mxCell>
        <mxCell id="J4ALd3isPmLyB3Tv-TsV-39" value="Mulai" style="ellipse;whiteSpace=wrap;html=1;" parent="WIyWlLk6GJQsqaUBKTNV-1" vertex="1">
          <mxGeometry x="112.5" y="5" width="75" height="40" as="geometry" />
        </mxCell>
        <mxCell id="J4ALd3isPmLyB3Tv-TsV-40" style="edgeStyle=orthogonalEdgeStyle;rounded=0;orthogonalLoop=1;jettySize=auto;html=1;entryX=0.5;entryY=0;entryDx=0;entryDy=0;" parent="WIyWlLk6GJQsqaUBKTNV-1" edge="1">
          <mxGeometry relative="1" as="geometry">
            <mxPoint x="150" y="125" as="sourcePoint" />
            <mxPoint x="150" y="165" as="targetPoint" />
          </mxGeometry>
        </mxCell>
        <mxCell id="J4ALd3isPmLyB3Tv-TsV-46" value="Yes" style="text;html=1;align=center;verticalAlign=middle;resizable=0;points=[];autosize=1;strokeColor=none;" parent="WIyWlLk6GJQsqaUBKTNV-1" vertex="1">
          <mxGeometry x="150" y="450" width="30" height="20" as="geometry" />
        </mxCell>
        <mxCell id="J4ALd3isPmLyB3Tv-TsV-47" value="No" style="text;html=1;align=center;verticalAlign=middle;resizable=0;points=[];autosize=1;strokeColor=none;" parent="WIyWlLk6GJQsqaUBKTNV-1" vertex="1">
          <mxGeometry x="205" y="375" width="30" height="20" as="geometry" />
        </mxCell>
        <mxCell id="J4ALd3isPmLyB3Tv-TsV-48" value="Yes" style="text;html=1;align=center;verticalAlign=middle;resizable=0;points=[];autosize=1;strokeColor=none;" parent="WIyWlLk6GJQsqaUBKTNV-1" vertex="1">
          <mxGeometry x="210" y="500" width="30" height="20" as="geometry" />
        </mxCell>
        <mxCell id="J4ALd3isPmLyB3Tv-TsV-49" value="No" style="text;html=1;align=center;verticalAlign=middle;resizable=0;points=[];autosize=1;strokeColor=none;" parent="WIyWlLk6GJQsqaUBKTNV-1" vertex="1">
          <mxGeometry x="150" y="560" width="30" height="20" as="geometry" />
        </mxCell>
        <mxCell id="J4ALd3isPmLyB3Tv-TsV-52" value="Selesai" style="ellipse;whiteSpace=wrap;html=1;" parent="WIyWlLk6GJQsqaUBKTNV-1" vertex="1">
          <mxGeometry x="112.5" y="695" width="75" height="40" as="geometry" />
        </mxCell>
        <mxCell id="J4ALd3isPmLyB3Tv-TsV-56" style="edgeStyle=orthogonalEdgeStyle;rounded=0;orthogonalLoop=1;jettySize=auto;html=1;" parent="WIyWlLk6GJQsqaUBKTNV-1" source="J4ALd3isPmLyB3Tv-TsV-58" edge="1">
          <mxGeometry relative="1" as="geometry">
            <mxPoint x="550" y="405" as="targetPoint" />
          </mxGeometry>
        </mxCell>
        <mxCell id="J4ALd3isPmLyB3Tv-TsV-57" style="edgeStyle=orthogonalEdgeStyle;rounded=0;orthogonalLoop=1;jettySize=auto;html=1;" parent="WIyWlLk6GJQsqaUBKTNV-1" source="J4ALd3isPmLyB3Tv-TsV-58" edge="1">
          <mxGeometry relative="1" as="geometry">
            <mxPoint x="450" y="485" as="targetPoint" />
          </mxGeometry>
        </mxCell>
        <mxCell id="J4ALd3isPmLyB3Tv-TsV-58" value="lengkap?" style="rhombus;whiteSpace=wrap;html=1;shadow=0;fontFamily=Helvetica;fontSize=12;align=center;strokeWidth=1;spacing=6;spacingTop=-4;" parent="WIyWlLk6GJQsqaUBKTNV-1" vertex="1">
          <mxGeometry x="400" y="365" width="100" height="80" as="geometry" />
        </mxCell>
        <mxCell id="J4ALd3isPmLyB3Tv-TsV-62" style="edgeStyle=orthogonalEdgeStyle;rounded=0;orthogonalLoop=1;jettySize=auto;html=1;entryX=0.5;entryY=0;entryDx=0;entryDy=0;" parent="WIyWlLk6GJQsqaUBKTNV-1" target="J4ALd3isPmLyB3Tv-TsV-73" edge="1">
          <mxGeometry relative="1" as="geometry">
            <mxPoint x="450" y="545" as="sourcePoint" />
          </mxGeometry>
        </mxCell>
        <mxCell id="J4ALd3isPmLyB3Tv-TsV-65" style="edgeStyle=orthogonalEdgeStyle;rounded=0;orthogonalLoop=1;jettySize=auto;html=1;entryX=0.5;entryY=0;entryDx=0;entryDy=0;" parent="WIyWlLk6GJQsqaUBKTNV-1" source="J4ALd3isPmLyB3Tv-TsV-66" edge="1">
          <mxGeometry relative="1" as="geometry">
            <mxPoint x="450" y="85" as="targetPoint" />
          </mxGeometry>
        </mxCell>
        <mxCell id="J4ALd3isPmLyB3Tv-TsV-66" value="Mulai" style="ellipse;whiteSpace=wrap;html=1;" parent="WIyWlLk6GJQsqaUBKTNV-1" vertex="1">
          <mxGeometry x="412.5" y="5" width="75" height="40" as="geometry" />
        </mxCell>
        <mxCell id="J4ALd3isPmLyB3Tv-TsV-67" style="edgeStyle=orthogonalEdgeStyle;rounded=0;orthogonalLoop=1;jettySize=auto;html=1;entryX=0.5;entryY=0;entryDx=0;entryDy=0;" parent="WIyWlLk6GJQsqaUBKTNV-1" edge="1">
          <mxGeometry relative="1" as="geometry">
            <mxPoint x="450" y="125" as="sourcePoint" />
            <mxPoint x="450" y="165" as="targetPoint" />
          </mxGeometry>
        </mxCell>
        <mxCell id="J4ALd3isPmLyB3Tv-TsV-69" value="Yes" style="text;html=1;align=center;verticalAlign=middle;resizable=0;points=[];autosize=1;strokeColor=none;" parent="WIyWlLk6GJQsqaUBKTNV-1" vertex="1">
          <mxGeometry x="450" y="455" width="30" height="20" as="geometry" />
        </mxCell>
        <mxCell id="J4ALd3isPmLyB3Tv-TsV-70" value="No" style="text;html=1;align=center;verticalAlign=middle;resizable=0;points=[];autosize=1;strokeColor=none;" parent="WIyWlLk6GJQsqaUBKTNV-1" vertex="1">
          <mxGeometry x="505" y="385" width="30" height="20" as="geometry" />
        </mxCell>
        <mxCell id="J4ALd3isPmLyB3Tv-TsV-73" value="Selesai" style="ellipse;whiteSpace=wrap;html=1;" parent="WIyWlLk6GJQsqaUBKTNV-1" vertex="1">
          <mxGeometry x="412.5" y="585" width="75" height="40" as="geometry" />
        </mxCell>
        <mxCell id="yxjZsRSwyusu8sgSYU_l-7" style="edgeStyle=orthogonalEdgeStyle;rounded=0;orthogonalLoop=1;jettySize=auto;html=1;entryX=0.5;entryY=0;entryDx=0;entryDy=0;entryPerimeter=0;" parent="WIyWlLk6GJQsqaUBKTNV-1" source="J4ALd3isPmLyB3Tv-TsV-98" target="yxjZsRSwyusu8sgSYU_l-6" edge="1">
          <mxGeometry relative="1" as="geometry" />
        </mxCell>
        <mxCell id="J4ALd3isPmLyB3Tv-TsV-98" value="Mulai" style="ellipse;whiteSpace=wrap;html=1;" parent="WIyWlLk6GJQsqaUBKTNV-1" vertex="1">
          <mxGeometry x="849.5" width="75" height="40" as="geometry" />
        </mxCell>
        <mxCell id="J4ALd3isPmLyB3Tv-TsV-103" value="Selesai" style="ellipse;whiteSpace=wrap;html=1;" parent="WIyWlLk6GJQsqaUBKTNV-1" vertex="1">
          <mxGeometry x="850" y="1010" width="75" height="40" as="geometry" />
        </mxCell>
        <mxCell id="J4ALd3isPmLyB3Tv-TsV-120" style="edgeStyle=orthogonalEdgeStyle;rounded=0;orthogonalLoop=1;jettySize=auto;html=1;" parent="WIyWlLk6GJQsqaUBKTNV-1" target="J4ALd3isPmLyB3Tv-TsV-103" edge="1">
          <mxGeometry relative="1" as="geometry">
            <mxPoint x="887.5" y="980" as="sourcePoint" />
          </mxGeometry>
        </mxCell>
        <mxCell id="yagRSJobjz2Ij9I6aUuk-4" style="edgeStyle=orthogonalEdgeStyle;rounded=0;orthogonalLoop=1;jettySize=auto;html=1;entryX=0.5;entryY=0;entryDx=0;entryDy=0;" parent="WIyWlLk6GJQsqaUBKTNV-1" edge="1">
          <mxGeometry relative="1" as="geometry">
            <mxPoint x="-150" y="235" as="sourcePoint" />
            <mxPoint x="-150" y="275" as="targetPoint" />
            <Array as="points">
              <mxPoint x="-150" y="275" />
              <mxPoint x="-150" y="275" />
            </Array>
          </mxGeometry>
        </mxCell>
        <mxCell id="yagRSJobjz2Ij9I6aUuk-2" value="&lt;br&gt;Input usern, pass, fname, lname" style="html=1;strokeWidth=2;shape=manualInput;whiteSpace=wrap;rounded=1;size=26;arcSize=11;" parent="WIyWlLk6GJQsqaUBKTNV-1" vertex="1">
          <mxGeometry x="-200" y="155" width="100" height="80" as="geometry" />
        </mxCell>
        <mxCell id="yagRSJobjz2Ij9I6aUuk-6" style="edgeStyle=orthogonalEdgeStyle;rounded=0;orthogonalLoop=1;jettySize=auto;html=1;entryX=0.5;entryY=0;entryDx=0;entryDy=0;" parent="WIyWlLk6GJQsqaUBKTNV-1" source="yagRSJobjz2Ij9I6aUuk-5" target="yagRSJobjz2Ij9I6aUuk-2" edge="1">
          <mxGeometry relative="1" as="geometry" />
        </mxCell>
        <mxCell id="yagRSJobjz2Ij9I6aUuk-5" value="laman regis" style="strokeWidth=2;html=1;shape=mxgraph.flowchart.display;whiteSpace=wrap;" parent="WIyWlLk6GJQsqaUBKTNV-1" vertex="1">
          <mxGeometry x="-200" y="95" width="100" height="40" as="geometry" />
        </mxCell>
        <mxCell id="yagRSJobjz2Ij9I6aUuk-7" value="warning ganti username" style="strokeWidth=2;html=1;shape=mxgraph.flowchart.display;whiteSpace=wrap;" parent="WIyWlLk6GJQsqaUBKTNV-1" vertex="1">
          <mxGeometry x="-50" y="375" width="100" height="40" as="geometry" />
        </mxCell>
        <mxCell id="yagRSJobjz2Ij9I6aUuk-8" value="No" style="text;html=1;align=center;verticalAlign=middle;resizable=0;points=[];autosize=1;strokeColor=none;" parent="WIyWlLk6GJQsqaUBKTNV-1" vertex="1">
          <mxGeometry x="-152.5" y="435" width="30" height="20" as="geometry" />
        </mxCell>
        <mxCell id="yagRSJobjz2Ij9I6aUuk-9" value="warning ganti password" style="strokeWidth=2;html=1;shape=mxgraph.flowchart.display;whiteSpace=wrap;" parent="WIyWlLk6GJQsqaUBKTNV-1" vertex="1">
          <mxGeometry x="-50" y="495" width="100" height="40" as="geometry" />
        </mxCell>
        <mxCell id="yagRSJobjz2Ij9I6aUuk-12" style="edgeStyle=orthogonalEdgeStyle;rounded=0;orthogonalLoop=1;jettySize=auto;html=1;" parent="WIyWlLk6GJQsqaUBKTNV-1" source="yagRSJobjz2Ij9I6aUuk-10" target="J4ALd3isPmLyB3Tv-TsV-24" edge="1">
          <mxGeometry relative="1" as="geometry" />
        </mxCell>
        <mxCell id="yagRSJobjz2Ij9I6aUuk-10" value="Login Page" style="strokeWidth=2;html=1;shape=mxgraph.flowchart.display;whiteSpace=wrap;" parent="WIyWlLk6GJQsqaUBKTNV-1" vertex="1">
          <mxGeometry x="-200" y="595" width="100" height="40" as="geometry" />
        </mxCell>
        <mxCell id="yagRSJobjz2Ij9I6aUuk-13" value="laman login" style="strokeWidth=2;html=1;shape=mxgraph.flowchart.display;whiteSpace=wrap;" parent="WIyWlLk6GJQsqaUBKTNV-1" vertex="1">
          <mxGeometry x="100" y="85" width="100" height="40" as="geometry" />
        </mxCell>
        <mxCell id="yagRSJobjz2Ij9I6aUuk-16" style="edgeStyle=orthogonalEdgeStyle;rounded=0;orthogonalLoop=1;jettySize=auto;html=1;entryX=0.5;entryY=0;entryDx=0;entryDy=0;" parent="WIyWlLk6GJQsqaUBKTNV-1" source="yagRSJobjz2Ij9I6aUuk-14" target="yagRSJobjz2Ij9I6aUuk-15" edge="1">
          <mxGeometry relative="1" as="geometry" />
        </mxCell>
        <mxCell id="yagRSJobjz2Ij9I6aUuk-14" value="&lt;br&gt;Input usern, pass" style="html=1;strokeWidth=2;shape=manualInput;whiteSpace=wrap;rounded=1;size=26;arcSize=11;" parent="WIyWlLk6GJQsqaUBKTNV-1" vertex="1">
          <mxGeometry x="100" y="155" width="100" height="80" as="geometry" />
        </mxCell>
        <mxCell id="yagRSJobjz2Ij9I6aUuk-15" value="Submit" style="rounded=1;whiteSpace=wrap;html=1;fontSize=12;glass=0;strokeWidth=1;shadow=0;" parent="WIyWlLk6GJQsqaUBKTNV-1" vertex="1">
          <mxGeometry x="90" y="275" width="120" height="40" as="geometry" />
        </mxCell>
        <mxCell id="yagRSJobjz2Ij9I6aUuk-17" value="warning masukkan data" style="strokeWidth=2;html=1;shape=mxgraph.flowchart.display;whiteSpace=wrap;" parent="WIyWlLk6GJQsqaUBKTNV-1" vertex="1">
          <mxGeometry x="250" y="365" width="100" height="60" as="geometry" />
        </mxCell>
        <mxCell id="yagRSJobjz2Ij9I6aUuk-19" value="warning pass/ uname salah" style="strokeWidth=2;html=1;shape=mxgraph.flowchart.display;whiteSpace=wrap;" parent="WIyWlLk6GJQsqaUBKTNV-1" vertex="1">
          <mxGeometry x="250" y="490" width="100" height="60" as="geometry" />
        </mxCell>
        <mxCell id="yagRSJobjz2Ij9I6aUuk-20" value="Landing Page" style="strokeWidth=2;html=1;shape=mxgraph.flowchart.display;whiteSpace=wrap;" parent="WIyWlLk6GJQsqaUBKTNV-1" vertex="1">
          <mxGeometry x="100" y="615" width="100" height="40" as="geometry" />
        </mxCell>
        <mxCell id="yagRSJobjz2Ij9I6aUuk-21" value="laman Profile" style="strokeWidth=2;html=1;shape=mxgraph.flowchart.display;whiteSpace=wrap;" parent="WIyWlLk6GJQsqaUBKTNV-1" vertex="1">
          <mxGeometry x="400" y="85" width="100" height="40" as="geometry" />
        </mxCell>
        <mxCell id="yagRSJobjz2Ij9I6aUuk-25" style="edgeStyle=orthogonalEdgeStyle;rounded=0;orthogonalLoop=1;jettySize=auto;html=1;" parent="WIyWlLk6GJQsqaUBKTNV-1" source="yagRSJobjz2Ij9I6aUuk-22" target="yagRSJobjz2Ij9I6aUuk-23" edge="1">
          <mxGeometry relative="1" as="geometry" />
        </mxCell>
        <mxCell id="yagRSJobjz2Ij9I6aUuk-22" value="&lt;br&gt;nama depan, nama belakang,&amp;nbsp; alamat, image, telpon" style="html=1;strokeWidth=2;shape=manualInput;whiteSpace=wrap;rounded=1;size=26;arcSize=11;" parent="WIyWlLk6GJQsqaUBKTNV-1" vertex="1">
          <mxGeometry x="400" y="155" width="100" height="100" as="geometry" />
        </mxCell>
        <mxCell id="yagRSJobjz2Ij9I6aUuk-26" style="edgeStyle=orthogonalEdgeStyle;rounded=0;orthogonalLoop=1;jettySize=auto;html=1;entryX=0.5;entryY=0;entryDx=0;entryDy=0;" parent="WIyWlLk6GJQsqaUBKTNV-1" source="yagRSJobjz2Ij9I6aUuk-23" target="J4ALd3isPmLyB3Tv-TsV-58" edge="1">
          <mxGeometry relative="1" as="geometry" />
        </mxCell>
        <mxCell id="yagRSJobjz2Ij9I6aUuk-23" value="Submit" style="rounded=1;whiteSpace=wrap;html=1;fontSize=12;glass=0;strokeWidth=1;shadow=0;" parent="WIyWlLk6GJQsqaUBKTNV-1" vertex="1">
          <mxGeometry x="390" y="295" width="120" height="40" as="geometry" />
        </mxCell>
        <mxCell id="yagRSJobjz2Ij9I6aUuk-27" value="warning masukkan data" style="strokeWidth=2;html=1;shape=mxgraph.flowchart.display;whiteSpace=wrap;" parent="WIyWlLk6GJQsqaUBKTNV-1" vertex="1">
          <mxGeometry x="550" y="375" width="100" height="60" as="geometry" />
        </mxCell>
        <mxCell id="yagRSJobjz2Ij9I6aUuk-28" value="message sukses update data" style="strokeWidth=2;html=1;shape=mxgraph.flowchart.display;whiteSpace=wrap;" parent="WIyWlLk6GJQsqaUBKTNV-1" vertex="1">
          <mxGeometry x="400" y="485" width="100" height="60" as="geometry" />
        </mxCell>
        <mxCell id="yagRSJobjz2Ij9I6aUuk-29" style="edgeStyle=orthogonalEdgeStyle;rounded=0;orthogonalLoop=1;jettySize=auto;html=1;exitX=0.5;exitY=1;exitDx=0;exitDy=0;" parent="WIyWlLk6GJQsqaUBKTNV-1" source="yagRSJobjz2Ij9I6aUuk-48" edge="1">
          <mxGeometry relative="1" as="geometry">
            <mxPoint x="730" y="330" as="sourcePoint" />
            <mxPoint x="730" y="250" as="targetPoint" />
          </mxGeometry>
        </mxCell>
        <mxCell id="yagRSJobjz2Ij9I6aUuk-36" style="edgeStyle=orthogonalEdgeStyle;rounded=0;orthogonalLoop=1;jettySize=auto;html=1;entryX=0.5;entryY=0;entryDx=0;entryDy=0;" parent="WIyWlLk6GJQsqaUBKTNV-1" target="yagRSJobjz2Ij9I6aUuk-44" edge="1">
          <mxGeometry relative="1" as="geometry">
            <mxPoint x="730" y="280" as="sourcePoint" />
          </mxGeometry>
        </mxCell>
        <mxCell id="yagRSJobjz2Ij9I6aUuk-37" style="edgeStyle=orthogonalEdgeStyle;rounded=0;orthogonalLoop=1;jettySize=auto;html=1;entryX=0.5;entryY=0;entryDx=0;entryDy=0;" parent="WIyWlLk6GJQsqaUBKTNV-1" source="yagRSJobjz2Ij9I6aUuk-38" edge="1">
          <mxGeometry relative="1" as="geometry">
            <mxPoint x="730" y="80" as="targetPoint" />
          </mxGeometry>
        </mxCell>
        <mxCell id="yagRSJobjz2Ij9I6aUuk-38" value="Mulai" style="ellipse;whiteSpace=wrap;html=1;" parent="WIyWlLk6GJQsqaUBKTNV-1" vertex="1">
          <mxGeometry x="692.5" width="75" height="40" as="geometry" />
        </mxCell>
        <mxCell id="yagRSJobjz2Ij9I6aUuk-39" style="edgeStyle=orthogonalEdgeStyle;rounded=0;orthogonalLoop=1;jettySize=auto;html=1;entryX=0.5;entryY=0;entryDx=0;entryDy=0;" parent="WIyWlLk6GJQsqaUBKTNV-1" edge="1">
          <mxGeometry relative="1" as="geometry">
            <mxPoint x="730" y="120" as="sourcePoint" />
            <mxPoint x="730" y="160" as="targetPoint" />
          </mxGeometry>
        </mxCell>
        <mxCell id="yagRSJobjz2Ij9I6aUuk-44" value="Selesai" style="ellipse;whiteSpace=wrap;html=1;" parent="WIyWlLk6GJQsqaUBKTNV-1" vertex="1">
          <mxGeometry x="692.5" y="320" width="75" height="40" as="geometry" />
        </mxCell>
        <mxCell id="yagRSJobjz2Ij9I6aUuk-45" value="laman Profile" style="strokeWidth=2;html=1;shape=mxgraph.flowchart.display;whiteSpace=wrap;" parent="WIyWlLk6GJQsqaUBKTNV-1" vertex="1">
          <mxGeometry x="680" y="80" width="100" height="40" as="geometry" />
        </mxCell>
        <mxCell id="yagRSJobjz2Ij9I6aUuk-48" value="Logout" style="rounded=1;whiteSpace=wrap;html=1;fontSize=12;glass=0;strokeWidth=1;shadow=0;" parent="WIyWlLk6GJQsqaUBKTNV-1" vertex="1">
          <mxGeometry x="670" y="160" width="120" height="40" as="geometry" />
        </mxCell>
        <mxCell id="yagRSJobjz2Ij9I6aUuk-52" value="laman login" style="strokeWidth=2;html=1;shape=mxgraph.flowchart.display;whiteSpace=wrap;" parent="WIyWlLk6GJQsqaUBKTNV-1" vertex="1">
          <mxGeometry x="680" y="240" width="100" height="40" as="geometry" />
        </mxCell>
        <mxCell id="yxjZsRSwyusu8sgSYU_l-0" value="&amp;nbsp;" style="text;whiteSpace=wrap;html=1;" parent="WIyWlLk6GJQsqaUBKTNV-1" vertex="1">
          <mxGeometry x="520" y="125" width="30" height="30" as="geometry" />
        </mxCell>
        <mxCell id="yxjZsRSwyusu8sgSYU_l-1" value="ORDER" style="text;html=1;align=center;verticalAlign=middle;resizable=0;points=[];autosize=1;strokeColor=none;" parent="WIyWlLk6GJQsqaUBKTNV-1" vertex="1">
          <mxGeometry x="857" y="-40" width="60" height="20" as="geometry" />
        </mxCell>
        <mxCell id="yxjZsRSwyusu8sgSYU_l-2" value="UPDATE PROFILE" style="text;html=1;align=center;verticalAlign=middle;resizable=0;points=[];autosize=1;strokeColor=none;" parent="WIyWlLk6GJQsqaUBKTNV-1" vertex="1">
          <mxGeometry x="390" y="-35" width="120" height="20" as="geometry" />
        </mxCell>
        <mxCell id="yxjZsRSwyusu8sgSYU_l-3" value="LOGIN" style="text;html=1;align=center;verticalAlign=middle;resizable=0;points=[];autosize=1;strokeColor=none;" parent="WIyWlLk6GJQsqaUBKTNV-1" vertex="1">
          <mxGeometry x="125" y="-35" width="50" height="20" as="geometry" />
        </mxCell>
        <mxCell id="yxjZsRSwyusu8sgSYU_l-4" value="REGISTRASI" style="text;html=1;align=center;verticalAlign=middle;resizable=0;points=[];autosize=1;strokeColor=none;" parent="WIyWlLk6GJQsqaUBKTNV-1" vertex="1">
          <mxGeometry x="-195" y="-35" width="90" height="20" as="geometry" />
        </mxCell>
        <mxCell id="yxjZsRSwyusu8sgSYU_l-5" value="LOGOUT" style="text;html=1;align=center;verticalAlign=middle;resizable=0;points=[];autosize=1;strokeColor=none;" parent="WIyWlLk6GJQsqaUBKTNV-1" vertex="1">
          <mxGeometry x="695" y="-40" width="70" height="20" as="geometry" />
        </mxCell>
        <mxCell id="yxjZsRSwyusu8sgSYU_l-10" style="edgeStyle=orthogonalEdgeStyle;rounded=0;orthogonalLoop=1;jettySize=auto;html=1;" parent="WIyWlLk6GJQsqaUBKTNV-1" source="yxjZsRSwyusu8sgSYU_l-6" target="yxjZsRSwyusu8sgSYU_l-9" edge="1">
          <mxGeometry relative="1" as="geometry" />
        </mxCell>
        <mxCell id="yxjZsRSwyusu8sgSYU_l-12" style="edgeStyle=orthogonalEdgeStyle;rounded=0;orthogonalLoop=1;jettySize=auto;html=1;entryX=0.5;entryY=0;entryDx=0;entryDy=0;" parent="WIyWlLk6GJQsqaUBKTNV-1" source="yxjZsRSwyusu8sgSYU_l-6" target="yxjZsRSwyusu8sgSYU_l-11" edge="1">
          <mxGeometry relative="1" as="geometry">
            <Array as="points">
              <mxPoint x="1037" y="90" />
            </Array>
          </mxGeometry>
        </mxCell>
        <mxCell id="yxjZsRSwyusu8sgSYU_l-6" value="laman Menu" style="strokeWidth=2;html=1;shape=mxgraph.flowchart.display;whiteSpace=wrap;" parent="WIyWlLk6GJQsqaUBKTNV-1" vertex="1">
          <mxGeometry x="837" y="70" width="100" height="40" as="geometry" />
        </mxCell>
        <mxCell id="yxjZsRSwyusu8sgSYU_l-22" style="edgeStyle=orthogonalEdgeStyle;rounded=0;orthogonalLoop=1;jettySize=auto;html=1;" parent="WIyWlLk6GJQsqaUBKTNV-1" source="yxjZsRSwyusu8sgSYU_l-9" target="yxjZsRSwyusu8sgSYU_l-21" edge="1">
          <mxGeometry relative="1" as="geometry" />
        </mxCell>
        <mxCell id="yxjZsRSwyusu8sgSYU_l-9" value="Pesan" style="rounded=1;whiteSpace=wrap;html=1;fontSize=12;glass=0;strokeWidth=1;shadow=0;" parent="WIyWlLk6GJQsqaUBKTNV-1" vertex="1">
          <mxGeometry x="827" y="300" width="120" height="40" as="geometry" />
        </mxCell>
        <mxCell id="yxjZsRSwyusu8sgSYU_l-14" style="edgeStyle=orthogonalEdgeStyle;rounded=0;orthogonalLoop=1;jettySize=auto;html=1;" parent="WIyWlLk6GJQsqaUBKTNV-1" source="yxjZsRSwyusu8sgSYU_l-11" target="yxjZsRSwyusu8sgSYU_l-13" edge="1">
          <mxGeometry relative="1" as="geometry" />
        </mxCell>
        <mxCell id="yxjZsRSwyusu8sgSYU_l-11" value="Klik Gambar/Nama menu" style="rounded=1;whiteSpace=wrap;html=1;fontSize=12;glass=0;strokeWidth=1;shadow=0;" parent="WIyWlLk6GJQsqaUBKTNV-1" vertex="1">
          <mxGeometry x="977" y="140" width="120" height="40" as="geometry" />
        </mxCell>
        <mxCell id="yxjZsRSwyusu8sgSYU_l-16" style="edgeStyle=orthogonalEdgeStyle;rounded=0;orthogonalLoop=1;jettySize=auto;html=1;entryX=1;entryY=0.5;entryDx=0;entryDy=0;" parent="WIyWlLk6GJQsqaUBKTNV-1" source="yxjZsRSwyusu8sgSYU_l-13" target="yxjZsRSwyusu8sgSYU_l-9" edge="1">
          <mxGeometry relative="1" as="geometry">
            <Array as="points">
              <mxPoint x="1037" y="320" />
            </Array>
          </mxGeometry>
        </mxCell>
        <mxCell id="yxjZsRSwyusu8sgSYU_l-13" value="Detail Menu" style="strokeWidth=2;html=1;shape=mxgraph.flowchart.display;whiteSpace=wrap;" parent="WIyWlLk6GJQsqaUBKTNV-1" vertex="1">
          <mxGeometry x="987" y="220" width="100" height="40" as="geometry" />
        </mxCell>
        <mxCell id="yxjZsRSwyusu8sgSYU_l-30" style="edgeStyle=orthogonalEdgeStyle;rounded=0;orthogonalLoop=1;jettySize=auto;html=1;entryX=0.5;entryY=0;entryDx=0;entryDy=0;" parent="WIyWlLk6GJQsqaUBKTNV-1" source="yxjZsRSwyusu8sgSYU_l-17" target="yxjZsRSwyusu8sgSYU_l-28" edge="1">
          <mxGeometry relative="1" as="geometry" />
        </mxCell>
        <mxCell id="yxjZsRSwyusu8sgSYU_l-17" value="Konfirmasi Pesanan" style="strokeWidth=2;html=1;shape=mxgraph.flowchart.display;whiteSpace=wrap;" parent="WIyWlLk6GJQsqaUBKTNV-1" vertex="1">
          <mxGeometry x="837" y="545" width="100" height="40" as="geometry" />
        </mxCell>
        <mxCell id="yxjZsRSwyusu8sgSYU_l-25" style="edgeStyle=orthogonalEdgeStyle;rounded=0;orthogonalLoop=1;jettySize=auto;html=1;" parent="WIyWlLk6GJQsqaUBKTNV-1" source="yxjZsRSwyusu8sgSYU_l-21" target="yxjZsRSwyusu8sgSYU_l-24" edge="1">
          <mxGeometry relative="1" as="geometry" />
        </mxCell>
        <mxCell id="yxjZsRSwyusu8sgSYU_l-21" value="Tambah Quantity" style="rounded=1;whiteSpace=wrap;html=1;fontSize=12;glass=0;strokeWidth=1;shadow=0;" parent="WIyWlLk6GJQsqaUBKTNV-1" vertex="1">
          <mxGeometry x="827" y="380" width="120" height="40" as="geometry" />
        </mxCell>
        <mxCell id="yxjZsRSwyusu8sgSYU_l-26" style="edgeStyle=orthogonalEdgeStyle;rounded=0;orthogonalLoop=1;jettySize=auto;html=1;entryX=0.5;entryY=0;entryDx=0;entryDy=0;entryPerimeter=0;" parent="WIyWlLk6GJQsqaUBKTNV-1" source="yxjZsRSwyusu8sgSYU_l-24" target="yxjZsRSwyusu8sgSYU_l-17" edge="1">
          <mxGeometry relative="1" as="geometry" />
        </mxCell>
        <mxCell id="yxjZsRSwyusu8sgSYU_l-24" value="Konfirmasi Pesanan" style="rounded=1;whiteSpace=wrap;html=1;fontSize=12;glass=0;strokeWidth=1;shadow=0;" parent="WIyWlLk6GJQsqaUBKTNV-1" vertex="1">
          <mxGeometry x="827" y="465" width="120" height="40" as="geometry" />
        </mxCell>
        <mxCell id="yxjZsRSwyusu8sgSYU_l-31" style="edgeStyle=orthogonalEdgeStyle;rounded=0;orthogonalLoop=1;jettySize=auto;html=1;entryX=0;entryY=0.6;entryDx=0;entryDy=0;entryPerimeter=0;" parent="WIyWlLk6GJQsqaUBKTNV-1" source="yxjZsRSwyusu8sgSYU_l-28" target="yxjZsRSwyusu8sgSYU_l-29" edge="1">
          <mxGeometry relative="1" as="geometry" />
        </mxCell>
        <mxCell id="yxjZsRSwyusu8sgSYU_l-39" style="edgeStyle=orthogonalEdgeStyle;rounded=0;orthogonalLoop=1;jettySize=auto;html=1;entryX=0.5;entryY=0;entryDx=0;entryDy=0;" parent="WIyWlLk6GJQsqaUBKTNV-1" source="yxjZsRSwyusu8sgSYU_l-28" target="yxjZsRSwyusu8sgSYU_l-35" edge="1">
          <mxGeometry relative="1" as="geometry" />
        </mxCell>
        <mxCell id="yxjZsRSwyusu8sgSYU_l-28" value="Edit Alamat?" style="rhombus;whiteSpace=wrap;html=1;shadow=0;fontFamily=Helvetica;fontSize=12;align=center;strokeWidth=1;spacing=6;spacingTop=-4;" parent="WIyWlLk6GJQsqaUBKTNV-1" vertex="1">
          <mxGeometry x="837" y="620" width="100" height="80" as="geometry" />
        </mxCell>
        <mxCell id="yxjZsRSwyusu8sgSYU_l-29" value="&lt;div&gt;&lt;br&gt;&lt;/div&gt;&lt;div&gt;Edit alamat&lt;/div&gt;" style="html=1;strokeWidth=2;shape=manualInput;whiteSpace=wrap;rounded=1;size=26;arcSize=11;" parent="WIyWlLk6GJQsqaUBKTNV-1" vertex="1">
          <mxGeometry x="997" y="625" width="100" height="58" as="geometry" />
        </mxCell>
        <mxCell id="yxjZsRSwyusu8sgSYU_l-32" value="Yes" style="text;html=1;align=center;verticalAlign=middle;resizable=0;points=[];autosize=1;strokeColor=none;" parent="WIyWlLk6GJQsqaUBKTNV-1" vertex="1">
          <mxGeometry x="937" y="640" width="40" height="20" as="geometry" />
        </mxCell>
        <mxCell id="yxjZsRSwyusu8sgSYU_l-33" value="No" style="text;html=1;align=center;verticalAlign=middle;resizable=0;points=[];autosize=1;strokeColor=none;" parent="WIyWlLk6GJQsqaUBKTNV-1" vertex="1">
          <mxGeometry x="887" y="700" width="30" height="20" as="geometry" />
        </mxCell>
        <mxCell id="yxjZsRSwyusu8sgSYU_l-34" style="edgeStyle=orthogonalEdgeStyle;rounded=0;orthogonalLoop=1;jettySize=auto;html=1;entryX=0;entryY=0.6;entryDx=0;entryDy=0;entryPerimeter=0;" parent="WIyWlLk6GJQsqaUBKTNV-1" source="yxjZsRSwyusu8sgSYU_l-35" edge="1">
          <mxGeometry relative="1" as="geometry">
            <mxPoint x="997" y="779.7999999999997" as="targetPoint" />
          </mxGeometry>
        </mxCell>
        <mxCell id="yxjZsRSwyusu8sgSYU_l-42" style="edgeStyle=orthogonalEdgeStyle;rounded=0;orthogonalLoop=1;jettySize=auto;html=1;entryX=0.5;entryY=0;entryDx=0;entryDy=0;" parent="WIyWlLk6GJQsqaUBKTNV-1" source="yxjZsRSwyusu8sgSYU_l-35" target="yxjZsRSwyusu8sgSYU_l-41" edge="1">
          <mxGeometry relative="1" as="geometry" />
        </mxCell>
        <mxCell id="yxjZsRSwyusu8sgSYU_l-35" value="Update Quantity?" style="rhombus;whiteSpace=wrap;html=1;shadow=0;fontFamily=Helvetica;fontSize=12;align=center;strokeWidth=1;spacing=6;spacingTop=-4;" parent="WIyWlLk6GJQsqaUBKTNV-1" vertex="1">
          <mxGeometry x="837" y="740" width="100" height="80" as="geometry" />
        </mxCell>
        <mxCell id="yxjZsRSwyusu8sgSYU_l-37" value="Yes" style="text;html=1;align=center;verticalAlign=middle;resizable=0;points=[];autosize=1;strokeColor=none;" parent="WIyWlLk6GJQsqaUBKTNV-1" vertex="1">
          <mxGeometry x="937" y="760" width="40" height="20" as="geometry" />
        </mxCell>
        <mxCell id="yxjZsRSwyusu8sgSYU_l-38" value="No" style="text;html=1;align=center;verticalAlign=middle;resizable=0;points=[];autosize=1;strokeColor=none;" parent="WIyWlLk6GJQsqaUBKTNV-1" vertex="1">
          <mxGeometry x="912" y="820" width="30" height="20" as="geometry" />
        </mxCell>
        <mxCell id="yxjZsRSwyusu8sgSYU_l-40" value="Edit Quantity" style="rounded=1;whiteSpace=wrap;html=1;fontSize=12;glass=0;strokeWidth=1;shadow=0;" parent="WIyWlLk6GJQsqaUBKTNV-1" vertex="1">
          <mxGeometry x="997" y="760" width="120" height="40" as="geometry" />
        </mxCell>
        <mxCell id="yxjZsRSwyusu8sgSYU_l-45" style="edgeStyle=orthogonalEdgeStyle;rounded=0;orthogonalLoop=1;jettySize=auto;html=1;entryX=0.5;entryY=0;entryDx=0;entryDy=0;entryPerimeter=0;" parent="WIyWlLk6GJQsqaUBKTNV-1" source="yxjZsRSwyusu8sgSYU_l-41" target="yxjZsRSwyusu8sgSYU_l-43" edge="1">
          <mxGeometry relative="1" as="geometry" />
        </mxCell>
        <mxCell id="yxjZsRSwyusu8sgSYU_l-41" value="Buat pesanan" style="rounded=1;whiteSpace=wrap;html=1;fontSize=12;glass=0;strokeWidth=1;shadow=0;" parent="WIyWlLk6GJQsqaUBKTNV-1" vertex="1">
          <mxGeometry x="827" y="860" width="120" height="40" as="geometry" />
        </mxCell>
        <mxCell id="yxjZsRSwyusu8sgSYU_l-43" value="Summary order" style="strokeWidth=2;html=1;shape=mxgraph.flowchart.display;whiteSpace=wrap;" parent="WIyWlLk6GJQsqaUBKTNV-1" vertex="1">
          <mxGeometry x="837" y="940" width="100" height="40" as="geometry" />
        </mxCell>
        <mxCell id="gtSXlv9xAOHUfcJGhPBH-0" value="Front End" style="swimlane;startSize=20;horizontal=1;containerType=tree;" parent="WIyWlLk6GJQsqaUBKTNV-1" vertex="1">
          <mxGeometry x="1134" width="267" height="915" as="geometry">
            <mxRectangle x="-790" y="120" width="120" height="20" as="alternateBounds" />
          </mxGeometry>
        </mxCell>
        <mxCell id="gtSXlv9xAOHUfcJGhPBH-21" style="edgeStyle=orthogonalEdgeStyle;rounded=0;orthogonalLoop=1;jettySize=auto;html=1;entryX=0.5;entryY=0;entryDx=0;entryDy=0;" parent="gtSXlv9xAOHUfcJGhPBH-0" source="gtSXlv9xAOHUfcJGhPBH-8" target="gtSXlv9xAOHUfcJGhPBH-16" edge="1">
          <mxGeometry relative="1" as="geometry" />
        </mxCell>
        <mxCell id="gtSXlv9xAOHUfcJGhPBH-8" value="" style="ellipse;html=1;shape=startState;fillColor=#000000;strokeColor=#ff0000;" parent="gtSXlv9xAOHUfcJGhPBH-0" vertex="1">
          <mxGeometry x="130" y="30" width="30" height="30" as="geometry" />
        </mxCell>
        <mxCell id="gtSXlv9xAOHUfcJGhPBH-22" style="edgeStyle=orthogonalEdgeStyle;rounded=0;orthogonalLoop=1;jettySize=auto;html=1;" parent="gtSXlv9xAOHUfcJGhPBH-0" source="gtSXlv9xAOHUfcJGhPBH-16" target="gtSXlv9xAOHUfcJGhPBH-18" edge="1">
          <mxGeometry relative="1" as="geometry" />
        </mxCell>
        <mxCell id="gtSXlv9xAOHUfcJGhPBH-16" value="Insert Username and password" style="rounded=1;whiteSpace=wrap;html=1;arcSize=40;fontColor=#000000;fillColor=#ffffc0;strokeColor=#ff0000;" parent="gtSXlv9xAOHUfcJGhPBH-0" vertex="1">
          <mxGeometry x="85" y="100" width="120" height="40" as="geometry" />
        </mxCell>
        <mxCell id="gtSXlv9xAOHUfcJGhPBH-18" value="Klik Login" style="rounded=1;whiteSpace=wrap;html=1;arcSize=40;fontColor=#000000;fillColor=#ffffc0;strokeColor=#ff0000;" parent="gtSXlv9xAOHUfcJGhPBH-0" vertex="1">
          <mxGeometry x="85" y="180" width="120" height="40" as="geometry" />
        </mxCell>
        <mxCell id="gtSXlv9xAOHUfcJGhPBH-34" style="edgeStyle=orthogonalEdgeStyle;rounded=0;orthogonalLoop=1;jettySize=auto;html=1;entryX=0.5;entryY=0;entryDx=0;entryDy=0;" parent="gtSXlv9xAOHUfcJGhPBH-0" source="gtSXlv9xAOHUfcJGhPBH-27" target="gtSXlv9xAOHUfcJGhPBH-32" edge="1">
          <mxGeometry relative="1" as="geometry" />
        </mxCell>
        <mxCell id="gtSXlv9xAOHUfcJGhPBH-27" value="Klik Menu" style="rounded=1;whiteSpace=wrap;html=1;arcSize=40;fontColor=#000000;fillColor=#ffffc0;strokeColor=#ff0000;" parent="gtSXlv9xAOHUfcJGhPBH-0" vertex="1">
          <mxGeometry x="85" y="250" width="120" height="40" as="geometry" />
        </mxCell>
        <mxCell id="gtSXlv9xAOHUfcJGhPBH-35" style="edgeStyle=orthogonalEdgeStyle;rounded=0;orthogonalLoop=1;jettySize=auto;html=1;entryX=0.5;entryY=0;entryDx=0;entryDy=0;" parent="gtSXlv9xAOHUfcJGhPBH-0" source="gtSXlv9xAOHUfcJGhPBH-32" target="gtSXlv9xAOHUfcJGhPBH-33" edge="1">
          <mxGeometry relative="1" as="geometry" />
        </mxCell>
        <mxCell id="gtSXlv9xAOHUfcJGhPBH-32" value="Add Quantity" style="rounded=1;whiteSpace=wrap;html=1;arcSize=40;fontColor=#000000;fillColor=#ffffc0;strokeColor=#ff0000;" parent="gtSXlv9xAOHUfcJGhPBH-0" vertex="1">
          <mxGeometry x="85" y="320" width="120" height="40" as="geometry" />
        </mxCell>
        <mxCell id="gtSXlv9xAOHUfcJGhPBH-33" value="Klik Pesan" style="rounded=1;whiteSpace=wrap;html=1;arcSize=40;fontColor=#000000;fillColor=#ffffc0;strokeColor=#ff0000;" parent="gtSXlv9xAOHUfcJGhPBH-0" vertex="1">
          <mxGeometry x="85" y="390" width="120" height="40" as="geometry" />
        </mxCell>
        <mxCell id="gtSXlv9xAOHUfcJGhPBH-48" style="edgeStyle=orthogonalEdgeStyle;rounded=0;orthogonalLoop=1;jettySize=auto;html=1;entryX=0.5;entryY=0;entryDx=0;entryDy=0;" parent="gtSXlv9xAOHUfcJGhPBH-0" source="gtSXlv9xAOHUfcJGhPBH-43" target="gtSXlv9xAOHUfcJGhPBH-47" edge="1">
          <mxGeometry relative="1" as="geometry" />
        </mxCell>
        <mxCell id="gtSXlv9xAOHUfcJGhPBH-43" value="&lt;font style=&quot;font-size: 8px&quot;&gt;Edit Address?&lt;/font&gt;" style="rhombus;whiteSpace=wrap;html=1;fillColor=#ffffc0;strokeColor=#ff0000;" parent="gtSXlv9xAOHUfcJGhPBH-0" vertex="1">
          <mxGeometry x="17" y="495" width="80" height="40" as="geometry" />
        </mxCell>
        <mxCell id="gtSXlv9xAOHUfcJGhPBH-47" value="Edit Address" style="rounded=1;whiteSpace=wrap;html=1;arcSize=40;fontColor=#000000;fillColor=#ffffc0;strokeColor=#ff0000;" parent="gtSXlv9xAOHUfcJGhPBH-0" vertex="1">
          <mxGeometry x="112" y="535" width="120" height="40" as="geometry" />
        </mxCell>
        <mxCell id="gtSXlv9xAOHUfcJGhPBH-49" value="Yes" style="text;html=1;align=center;verticalAlign=middle;resizable=0;points=[];autosize=1;strokeColor=none;" parent="gtSXlv9xAOHUfcJGhPBH-0" vertex="1">
          <mxGeometry x="97" y="495" width="30" height="20" as="geometry" />
        </mxCell>
        <mxCell id="gtSXlv9xAOHUfcJGhPBH-75" style="edgeStyle=orthogonalEdgeStyle;rounded=0;orthogonalLoop=1;jettySize=auto;html=1;entryX=0.5;entryY=0;entryDx=0;entryDy=0;" parent="gtSXlv9xAOHUfcJGhPBH-0" source="gtSXlv9xAOHUfcJGhPBH-57" target="gtSXlv9xAOHUfcJGhPBH-74" edge="1">
          <mxGeometry relative="1" as="geometry" />
        </mxCell>
        <mxCell id="gtSXlv9xAOHUfcJGhPBH-57" value="&lt;font style=&quot;font-size: 8px&quot;&gt;Edit Quantity?&lt;/font&gt;" style="rhombus;whiteSpace=wrap;html=1;fillColor=#ffffc0;strokeColor=#ff0000;" parent="gtSXlv9xAOHUfcJGhPBH-0" vertex="1">
          <mxGeometry x="17" y="655" width="80" height="40" as="geometry" />
        </mxCell>
        <mxCell id="gtSXlv9xAOHUfcJGhPBH-58" value="Edit Quantity" style="rounded=1;whiteSpace=wrap;html=1;arcSize=40;fontColor=#000000;fillColor=#ffffc0;strokeColor=#ff0000;" parent="gtSXlv9xAOHUfcJGhPBH-0" vertex="1">
          <mxGeometry x="112" y="695" width="120" height="40" as="geometry" />
        </mxCell>
        <mxCell id="gtSXlv9xAOHUfcJGhPBH-56" style="edgeStyle=orthogonalEdgeStyle;rounded=0;orthogonalLoop=1;jettySize=auto;html=1;entryX=0.5;entryY=0;entryDx=0;entryDy=0;" parent="gtSXlv9xAOHUfcJGhPBH-0" source="gtSXlv9xAOHUfcJGhPBH-57" target="gtSXlv9xAOHUfcJGhPBH-58" edge="1">
          <mxGeometry relative="1" as="geometry" />
        </mxCell>
        <mxCell id="gtSXlv9xAOHUfcJGhPBH-59" value="Yes" style="text;html=1;align=center;verticalAlign=middle;resizable=0;points=[];autosize=1;strokeColor=none;" parent="gtSXlv9xAOHUfcJGhPBH-0" vertex="1">
          <mxGeometry x="97" y="655" width="30" height="20" as="geometry" />
        </mxCell>
        <mxCell id="LITVggiujnQM9fa_Dryi-0" style="edgeStyle=orthogonalEdgeStyle;rounded=0;orthogonalLoop=1;jettySize=auto;html=1;entryX=0.75;entryY=0;entryDx=0;entryDy=0;" parent="gtSXlv9xAOHUfcJGhPBH-0" source="gtSXlv9xAOHUfcJGhPBH-60" target="gtSXlv9xAOHUfcJGhPBH-74" edge="1">
          <mxGeometry relative="1" as="geometry">
            <Array as="points">
              <mxPoint x="387" y="745" />
              <mxPoint x="107" y="745" />
            </Array>
          </mxGeometry>
        </mxCell>
        <mxCell id="gtSXlv9xAOHUfcJGhPBH-60" value="Update Database" style="rounded=1;whiteSpace=wrap;html=1;arcSize=40;fontColor=#000000;fillColor=#ffffc0;strokeColor=#ff0000;" parent="gtSXlv9xAOHUfcJGhPBH-0" vertex="1">
          <mxGeometry x="327" y="695" width="120" height="40" as="geometry" />
        </mxCell>
        <mxCell id="gtSXlv9xAOHUfcJGhPBH-62" style="edgeStyle=orthogonalEdgeStyle;rounded=0;orthogonalLoop=1;jettySize=auto;html=1;entryX=0;entryY=0.5;entryDx=0;entryDy=0;" parent="gtSXlv9xAOHUfcJGhPBH-0" source="gtSXlv9xAOHUfcJGhPBH-58" target="gtSXlv9xAOHUfcJGhPBH-60" edge="1">
          <mxGeometry relative="1" as="geometry" />
        </mxCell>
        <mxCell id="gtSXlv9xAOHUfcJGhPBH-71" value="No" style="text;html=1;align=center;verticalAlign=middle;resizable=0;points=[];autosize=1;strokeColor=none;" parent="gtSXlv9xAOHUfcJGhPBH-0" vertex="1">
          <mxGeometry x="55" y="535" width="30" height="20" as="geometry" />
        </mxCell>
        <mxCell id="gtSXlv9xAOHUfcJGhPBH-77" style="edgeStyle=orthogonalEdgeStyle;rounded=0;orthogonalLoop=1;jettySize=auto;html=1;entryX=0.5;entryY=0;entryDx=0;entryDy=0;" parent="gtSXlv9xAOHUfcJGhPBH-0" source="gtSXlv9xAOHUfcJGhPBH-74" target="gtSXlv9xAOHUfcJGhPBH-76" edge="1">
          <mxGeometry relative="1" as="geometry" />
        </mxCell>
        <mxCell id="gtSXlv9xAOHUfcJGhPBH-74" value="Create Order" style="rounded=1;whiteSpace=wrap;html=1;arcSize=40;fontColor=#000000;fillColor=#ffffc0;strokeColor=#ff0000;" parent="gtSXlv9xAOHUfcJGhPBH-0" vertex="1">
          <mxGeometry x="17" y="775" width="120" height="40" as="geometry" />
        </mxCell>
        <mxCell id="gtSXlv9xAOHUfcJGhPBH-76" value="" style="ellipse;html=1;shape=endState;fillColor=#000000;strokeColor=#ff0000;" parent="gtSXlv9xAOHUfcJGhPBH-0" vertex="1">
          <mxGeometry x="62" y="855" width="30" height="30" as="geometry" />
        </mxCell>
        <mxCell id="LITVggiujnQM9fa_Dryi-1" value="No" style="text;html=1;align=center;verticalAlign=middle;resizable=0;points=[];autosize=1;strokeColor=none;" parent="gtSXlv9xAOHUfcJGhPBH-0" vertex="1">
          <mxGeometry x="55" y="695" width="30" height="20" as="geometry" />
        </mxCell>
        <mxCell id="gtSXlv9xAOHUfcJGhPBH-13" value="Back End" style="swimlane;startSize=20;horizontal=1;containerType=tree;" parent="WIyWlLk6GJQsqaUBKTNV-1" vertex="1">
          <mxGeometry x="1401" width="240" height="915" as="geometry">
            <mxRectangle x="-790" y="120" width="120" height="20" as="alternateBounds" />
          </mxGeometry>
        </mxCell>
        <mxCell id="gtSXlv9xAOHUfcJGhPBH-26" style="edgeStyle=orthogonalEdgeStyle;rounded=0;orthogonalLoop=1;jettySize=auto;html=1;entryX=0.5;entryY=0;entryDx=0;entryDy=0;" parent="gtSXlv9xAOHUfcJGhPBH-13" source="gtSXlv9xAOHUfcJGhPBH-19" target="gtSXlv9xAOHUfcJGhPBH-23" edge="1">
          <mxGeometry relative="1" as="geometry" />
        </mxCell>
        <mxCell id="gtSXlv9xAOHUfcJGhPBH-19" value="Verify Username and Password" style="rounded=1;whiteSpace=wrap;html=1;arcSize=40;fontColor=#000000;fillColor=#ffffc0;strokeColor=#ff0000;" parent="gtSXlv9xAOHUfcJGhPBH-13" vertex="1">
          <mxGeometry x="70" y="180" width="120" height="40" as="geometry" />
        </mxCell>
        <mxCell id="gtSXlv9xAOHUfcJGhPBH-23" value="Valid" style="rhombus;whiteSpace=wrap;html=1;fillColor=#ffffc0;strokeColor=#ff0000;" parent="gtSXlv9xAOHUfcJGhPBH-13" vertex="1">
          <mxGeometry x="90" y="250" width="80" height="40" as="geometry" />
        </mxCell>
        <mxCell id="gtSXlv9xAOHUfcJGhPBH-40" style="edgeStyle=orthogonalEdgeStyle;rounded=0;orthogonalLoop=1;jettySize=auto;html=1;entryX=0.5;entryY=0;entryDx=0;entryDy=0;" parent="gtSXlv9xAOHUfcJGhPBH-13" source="gtSXlv9xAOHUfcJGhPBH-37" target="gtSXlv9xAOHUfcJGhPBH-39" edge="1">
          <mxGeometry relative="1" as="geometry" />
        </mxCell>
        <mxCell id="gtSXlv9xAOHUfcJGhPBH-37" value="Insert To Database" style="rounded=1;whiteSpace=wrap;html=1;arcSize=40;fontColor=#000000;fillColor=#ffffc0;strokeColor=#ff0000;" parent="gtSXlv9xAOHUfcJGhPBH-13" vertex="1">
          <mxGeometry x="70" y="390" width="120" height="40" as="geometry" />
        </mxCell>
        <mxCell id="gtSXlv9xAOHUfcJGhPBH-39" value="Success?" style="rhombus;whiteSpace=wrap;html=1;fillColor=#ffffc0;strokeColor=#ff0000;" parent="gtSXlv9xAOHUfcJGhPBH-13" vertex="1">
          <mxGeometry x="90" y="460" width="80" height="40" as="geometry" />
        </mxCell>
        <mxCell id="gtSXlv9xAOHUfcJGhPBH-51" value="No" style="text;html=1;align=center;verticalAlign=middle;resizable=0;points=[];autosize=1;strokeColor=none;" parent="gtSXlv9xAOHUfcJGhPBH-13" vertex="1">
          <mxGeometry x="170" y="460" width="30" height="20" as="geometry" />
        </mxCell>
        <mxCell id="gtSXlv9xAOHUfcJGhPBH-54" value="Update Database" style="rounded=1;whiteSpace=wrap;html=1;arcSize=40;fontColor=#000000;fillColor=#ffffc0;strokeColor=#ff0000;" parent="gtSXlv9xAOHUfcJGhPBH-13" vertex="1">
          <mxGeometry x="70" y="535" width="120" height="40" as="geometry" />
        </mxCell>
        <mxCell id="gtSXlv9xAOHUfcJGhPBH-20" style="edgeStyle=orthogonalEdgeStyle;rounded=0;orthogonalLoop=1;jettySize=auto;html=1;entryX=0;entryY=0.5;entryDx=0;entryDy=0;" parent="WIyWlLk6GJQsqaUBKTNV-1" source="gtSXlv9xAOHUfcJGhPBH-18" target="gtSXlv9xAOHUfcJGhPBH-19" edge="1">
          <mxGeometry relative="1" as="geometry" />
        </mxCell>
        <mxCell id="gtSXlv9xAOHUfcJGhPBH-28" style="edgeStyle=orthogonalEdgeStyle;rounded=0;orthogonalLoop=1;jettySize=auto;html=1;entryX=1;entryY=0.5;entryDx=0;entryDy=0;" parent="WIyWlLk6GJQsqaUBKTNV-1" source="gtSXlv9xAOHUfcJGhPBH-23" target="gtSXlv9xAOHUfcJGhPBH-27" edge="1">
          <mxGeometry relative="1" as="geometry" />
        </mxCell>
        <mxCell id="gtSXlv9xAOHUfcJGhPBH-29" style="edgeStyle=orthogonalEdgeStyle;rounded=0;orthogonalLoop=1;jettySize=auto;html=1;entryX=1;entryY=0.5;entryDx=0;entryDy=0;" parent="WIyWlLk6GJQsqaUBKTNV-1" source="gtSXlv9xAOHUfcJGhPBH-23" target="gtSXlv9xAOHUfcJGhPBH-16" edge="1">
          <mxGeometry relative="1" as="geometry">
            <Array as="points">
              <mxPoint x="1601" y="270" />
              <mxPoint x="1601" y="120" />
            </Array>
          </mxGeometry>
        </mxCell>
        <mxCell id="gtSXlv9xAOHUfcJGhPBH-30" value="No" style="text;html=1;align=center;verticalAlign=middle;resizable=0;points=[];autosize=1;strokeColor=none;" parent="WIyWlLk6GJQsqaUBKTNV-1" vertex="1">
          <mxGeometry x="1566" y="250" width="30" height="20" as="geometry" />
        </mxCell>
        <mxCell id="gtSXlv9xAOHUfcJGhPBH-31" value="Yes" style="text;html=1;align=center;verticalAlign=middle;resizable=0;points=[];autosize=1;strokeColor=none;" parent="WIyWlLk6GJQsqaUBKTNV-1" vertex="1">
          <mxGeometry x="1446" y="250" width="30" height="20" as="geometry" />
        </mxCell>
        <mxCell id="gtSXlv9xAOHUfcJGhPBH-38" style="edgeStyle=orthogonalEdgeStyle;rounded=0;orthogonalLoop=1;jettySize=auto;html=1;entryX=0;entryY=0.5;entryDx=0;entryDy=0;" parent="WIyWlLk6GJQsqaUBKTNV-1" source="gtSXlv9xAOHUfcJGhPBH-33" target="gtSXlv9xAOHUfcJGhPBH-37" edge="1">
          <mxGeometry relative="1" as="geometry" />
        </mxCell>
        <mxCell id="gtSXlv9xAOHUfcJGhPBH-42" style="edgeStyle=orthogonalEdgeStyle;rounded=0;orthogonalLoop=1;jettySize=auto;html=1;entryX=1;entryY=0.5;entryDx=0;entryDy=0;" parent="WIyWlLk6GJQsqaUBKTNV-1" source="gtSXlv9xAOHUfcJGhPBH-39" target="gtSXlv9xAOHUfcJGhPBH-32" edge="1">
          <mxGeometry relative="1" as="geometry">
            <Array as="points">
              <mxPoint x="1601" y="480" />
              <mxPoint x="1601" y="340" />
            </Array>
          </mxGeometry>
        </mxCell>
        <mxCell id="gtSXlv9xAOHUfcJGhPBH-46" style="edgeStyle=orthogonalEdgeStyle;rounded=0;orthogonalLoop=1;jettySize=auto;html=1;entryX=0.5;entryY=0;entryDx=0;entryDy=0;" parent="WIyWlLk6GJQsqaUBKTNV-1" source="gtSXlv9xAOHUfcJGhPBH-39" target="gtSXlv9xAOHUfcJGhPBH-43" edge="1">
          <mxGeometry relative="1" as="geometry">
            <Array as="points">
              <mxPoint x="1191" y="480" />
            </Array>
          </mxGeometry>
        </mxCell>
        <mxCell id="gtSXlv9xAOHUfcJGhPBH-50" value="Yes" style="text;html=1;align=center;verticalAlign=middle;resizable=0;points=[];autosize=1;strokeColor=none;" parent="WIyWlLk6GJQsqaUBKTNV-1" vertex="1">
          <mxGeometry x="1456" y="460" width="30" height="20" as="geometry" />
        </mxCell>
        <mxCell id="gtSXlv9xAOHUfcJGhPBH-55" style="edgeStyle=orthogonalEdgeStyle;rounded=0;orthogonalLoop=1;jettySize=auto;html=1;entryX=0;entryY=0.5;entryDx=0;entryDy=0;" parent="WIyWlLk6GJQsqaUBKTNV-1" source="gtSXlv9xAOHUfcJGhPBH-47" target="gtSXlv9xAOHUfcJGhPBH-54" edge="1">
          <mxGeometry relative="1" as="geometry" />
        </mxCell>
        <mxCell id="gtSXlv9xAOHUfcJGhPBH-65" value="" style="shape=line;html=1;strokeWidth=6;strokeColor=#ff0000;" parent="WIyWlLk6GJQsqaUBKTNV-1" vertex="1">
          <mxGeometry x="1151" y="620" width="80" height="10" as="geometry" />
        </mxCell>
        <mxCell id="gtSXlv9xAOHUfcJGhPBH-61" style="edgeStyle=orthogonalEdgeStyle;rounded=0;orthogonalLoop=1;jettySize=auto;html=1;entryX=0.5;entryY=0;entryDx=0;entryDy=0;" parent="WIyWlLk6GJQsqaUBKTNV-1" source="gtSXlv9xAOHUfcJGhPBH-65" target="gtSXlv9xAOHUfcJGhPBH-57" edge="1">
          <mxGeometry relative="1" as="geometry">
            <mxPoint x="1191" y="630" as="sourcePoint" />
            <Array as="points" />
          </mxGeometry>
        </mxCell>
        <mxCell id="gtSXlv9xAOHUfcJGhPBH-67" style="edgeStyle=orthogonalEdgeStyle;rounded=0;orthogonalLoop=1;jettySize=auto;html=1;entryX=0.25;entryY=0.5;entryDx=0;entryDy=0;entryPerimeter=0;" parent="WIyWlLk6GJQsqaUBKTNV-1" source="gtSXlv9xAOHUfcJGhPBH-43" target="gtSXlv9xAOHUfcJGhPBH-65" edge="1">
          <mxGeometry relative="1" as="geometry" />
        </mxCell>
        <mxCell id="gtSXlv9xAOHUfcJGhPBH-70" style="edgeStyle=orthogonalEdgeStyle;rounded=0;orthogonalLoop=1;jettySize=auto;html=1;entryX=0.75;entryY=0.5;entryDx=0;entryDy=0;entryPerimeter=0;" parent="WIyWlLk6GJQsqaUBKTNV-1" source="gtSXlv9xAOHUfcJGhPBH-54" target="gtSXlv9xAOHUfcJGhPBH-65" edge="1">
          <mxGeometry relative="1" as="geometry">
            <Array as="points">
              <mxPoint x="1521" y="600" />
              <mxPoint x="1211" y="600" />
            </Array>
          </mxGeometry>
        </mxCell>
        <mxCell id="DlZW2WQTmK6FK-lKK8F2-0" value="ORDER" style="text;html=1;align=center;verticalAlign=middle;resizable=0;points=[];autosize=1;strokeColor=none;" parent="WIyWlLk6GJQsqaUBKTNV-1" vertex="1">
          <mxGeometry x="1367" y="-40" width="60" height="20" as="geometry" />
        </mxCell>
      </root>
    </mxGraphModel>
  </diagram>
</mxfile>
